# Alias OBJ Model File
# Exported from SketchUp, (c) 2000-2012 Trimble Navigation Limited
# File units = meters

mtllib 1x3.mtl

g Mesh1 Model

usemtl FrontColor
v 0.797468 1.21519 -0.506329
vt 1.56534 47.8421
vn 0.866025 0 -0.5
v 0.64557 1.21519 -0.769426
vt 13.5259 47.8421
v 0.64557 1.43038 -0.769426
vt 13.5259 56.3142
v 0.797468 1.43038 -0.506329
vt 1.56534 56.3142
f 1/1/1 2/2/1 3/3/1 4/4/1 

v 1.34177 1.21519 -0.769426
vt 52.8257 30.2923
vn 1.89311e-014 1 2.54521e-028
vt 25.4161 30.2923
vt 31.3964 19.9342
f 5/5/2 2/6/2 1/7/2

v 2.95 1.21519 -0.95
vt 116.142 37.4016
f 6/8/2 2/6/2 5/5/2

v 0.341772 1.21519 -0.769426
vt 13.4556 30.2923
f 6/8/2 7/9/2 2/6/2

v 0.05 1.21519 -0.95
vt 1.9685 37.4016
f 8/10/2 7/9/2 6/8/2

v 0.189873 1.21519 -0.506329
vt 7.47533 19.9342
f 7/9/2 8/10/2 9/11/2

v 0.05 1.21519 -0.0500002
vt 1.9685 1.96851
f 9/11/2 8/10/2 10/12/2

v 3.79003e-015 1.16519 -0.0500002
vt -1.96851 32.4376
vn -0.707107 0.707107 -1.08049e-016
vt -1.96851 35.2214
vt -37.4016 35.2214
v 4.15099e-015 1.16519 -0.95
vt -37.4016 32.4376
f 11/13/3 10/14/3 8/15/3 12/16/3 

vt -1.39195 38.2593
vn -0.57735 0.57735 0.57735
v 0.05 1.16519 -1.6575e-007
vt 1.39194 38.2593
vt -4.61429e-006 40.6702
f 11/17/4 13/18/4 10/19/4

v 3.79003e-015 2.56279e-014 -0.0500002
vt -1.39195 1.00897e-012
vn -0.707107 -4.24111e-033 0.707107
v 0.05 2.56279e-014 -1.6575e-007
vt 1.39194 1.00897e-012
vt 1.39194 45.8736
vt -1.39195 45.8736
f 14/20/5 15/21/5 13/22/5 11/23/5 

v 2.95 -4.99021e-014 4.96314e-014
vt -116.142 -1.95399e-012
vn -2.19882e-014 -1 1.72273e-014
v 1.05 9.02389e-017 -1.6575e-007
vt -41.3386 6.52559e-006
vt -1.9685 6.52559e-006
vt -1.49214e-013 1.96851
v 0 1.26334e-015 -0.95
vt 1.09365e-027 37.4016
v 0.05 1.08287e-015 -1
vt -1.9685 39.3701
v 1.05 -2.44547e-014 -1
vt -41.3386 39.3701
v 2.05 -4.99924e-014 -1
vt -80.7087 39.3701
v 2.95 -5.10752e-014 -1
vt -116.142 39.3701
v 3 -5.10752e-014 -0.95
vt -118.11 37.4016
v 3 -5.0985e-014 -0.0500002
vt -118.11 1.96851
f 16/24/6 17/25/6 15/26/6 14/27/6 18/28/6 19/29/6 20/30/6 21/31/6 22/32/6 23/33/6 24/34/6 

v 2.95 1.16519 2.47255e-014
vt 116.142 45.8736
vn -4.89506e-008 -5.20257e-009 1
vt 1.9685 45.8736
vt 1.9685 9.7452e-013
vt 41.3386 -4.09248e-014
vt 116.142 -1.99423e-012
f 25/35/7 13/36/7 15/37/7 17/38/7 16/39/7 

v 2.95 1.21519 -0.0500002
vt 116.142 35.2214
vn -1.68446e-008 0.707107 0.707106
vt 1.9685 35.2214
vt 1.9685 32.4375
vt 116.142 32.4375
f 26/40/8 10/41/8 13/42/8 25/43/8 

v 0.341772 1.21519 -0.243233
vt 13.4556 9.5761
vt 116.142 1.96851
f 27/44/2 10/12/2 26/45/2

f 10/12/2 27/44/2 9/11/2

vt -13.5259 47.8421
vn -0.866025 0 0.5
vt -1.56534 47.8421
v 0.341772 1.43038 -0.243233
vt -1.56534 56.3142
v 0.189873 1.43038 -0.506329
vt -13.5259 56.3142
f 9/46/9 27/47/9 28/48/9 29/49/9 

vt 13.4556 47.8421
vn 0 0 1
v 0.64557 1.21519 -0.243233
vt 25.4161 47.8421
v 0.64557 1.43038 -0.243233
vt 25.4161 56.3142
vt 13.4556 56.3142
f 27/50/10 30/51/10 31/52/10 28/53/10 

vt 25.4161 9.5761
f 27/44/2 26/45/2 30/54/2

v 1.34177 1.21519 -0.243233
vt 52.8257 9.5761
f 30/54/2 26/45/2 32/55/2

v 1.64557 1.21519 -0.243233
vt 64.7862 9.5761
f 32/55/2 26/45/2 33/56/2

v 2.34177 1.21519 -0.243233
vt 92.1958 9.5761
f 33/56/2 26/45/2 34/57/2

v 2.64557 1.21519 -0.243233
vt 104.156 9.5761
f 34/57/2 26/45/2 35/58/2

v 2.79747 1.21519 -0.506329
vt 110.137 19.9342
f 35/58/2 26/45/2 36/59/2

f 6/8/2 36/59/2 26/45/2

v 2.64557 1.21519 -0.769426
vt 104.156 30.2923
f 6/8/2 37/60/2 36/59/2

v 2.34177 1.21519 -0.769426
vt 92.1958 30.2923
f 6/8/2 38/61/2 37/60/2

v 1.64557 1.21519 -0.769426
vt 64.7862 30.2923
f 6/8/2 39/62/2 38/61/2

f 6/8/2 5/5/2 39/62/2

vt -64.7862 47.8421
vn 0 0 -1
vt -52.8257 47.8421
v 1.34177 1.43038 -0.769426
vt -52.8257 56.3142
v 1.64557 1.43038 -0.769426
vt -64.7862 56.3142
f 39/63/11 5/64/11 40/65/11 41/66/11 

vt -52.6468 47.8421
vn -0.866025 0 -0.5
v 1.18987 1.21519 -0.506329
vt -40.6863 47.8421
v 1.18987 1.43038 -0.506329
vt -40.6863 56.3142
vt -52.6468 56.3142
f 5/67/12 42/68/12 43/69/12 40/70/12 

vt 46.8454 19.9342
f 5/5/2 1/7/2 42/71/2

f 1/7/2 32/55/2 42/71/2

f 30/54/2 32/55/2 1/7/2

vt 21.0012 47.8421
vn 0.866025 0 0.5
vt 32.9617 47.8421
vt 32.9617 56.3142
vt 21.0012 56.3142
f 30/72/13 1/73/13 4/74/13 31/75/13 

vn 0 1 -0
v 0.341772 1.43038 -0.769426
f 31/54/14 4/7/14 3/6/14 44/9/14 29/11/14 28/44/14 

vt -25.4161 47.8421
vt -13.4556 47.8421
vt -13.4556 56.3142
vt -25.4161 56.3142
f 2/76/11 7/77/11 44/78/11 3/79/11 

vt -32.9617 47.8421
vt -21.0012 47.8421
vt -21.0012 56.3142
vt -32.9617 56.3142
f 7/80/12 9/81/12 29/82/12 44/83/12 

vt 6.15917 47.8421
vt 18.1197 47.8421
v 1.34177 1.43038 -0.243233
vt 18.1197 56.3142
vt 6.15917 56.3142
f 42/84/9 32/85/9 45/86/9 43/87/9 

vt 52.8257 47.8421
vt 64.7862 47.8421
v 1.64557 1.43038 -0.243233
vt 64.7862 56.3142
vt 52.8257 56.3142
f 32/88/10 33/89/10 46/90/10 45/91/10 

vt 40.6863 47.8421
v 1.79747 1.21519 -0.506329
vt 52.6468 47.8421
v 1.79747 1.43038 -0.506329
vt 52.6468 56.3142
vt 40.6863 56.3142
f 33/92/13 47/93/13 48/94/13 46/95/13 

vt 70.7665 19.9342
f 33/56/2 34/57/2 47/96/2

v 2.18987 1.21519 -0.506329
vt 86.2155 19.9342
f 47/96/2 34/57/2 49/97/2

vt 25.8442 47.8421
vt 37.8047 47.8421
v 2.34177 1.43038 -0.243233
vt 37.8047 56.3142
v 2.18987 1.43038 -0.506329
vt 25.8442 56.3142
f 49/98/9 34/99/9 50/100/9 51/101/9 

vt 92.1958 47.8421
vt 104.156 47.8421
v 2.64557 1.43038 -0.243233
vt 104.156 56.3142
vt 92.1958 56.3142
f 34/102/10 35/103/10 52/104/10 50/105/10 

vt 60.3713 47.8421
vt 72.3318 47.8421
v 2.79747 1.43038 -0.506329
vt 72.3318 56.3142
vt 60.3713 56.3142
f 35/106/13 36/107/13 53/108/13 52/109/13 

vt -37.8047 47.8421
vt -25.8442 47.8421
v 2.64557 1.43038 -0.769426
vt -25.8442 56.3142
vt -37.8047 56.3142
f 36/110/1 37/111/1 54/112/1 53/113/1 

vt -104.156 47.8421
vt -92.1958 47.8421
v 2.34177 1.43038 -0.769426
vt -92.1958 56.3142
vt -104.156 56.3142
f 37/114/11 38/115/11 55/116/11 54/117/11 

vt -72.3318 47.8421
vt -60.3713 47.8421
vt -60.3713 56.3142
vt -72.3318 56.3142
f 38/118/12 49/119/12 51/120/12 55/121/12 

f 38/61/2 47/96/2 49/97/2

f 38/61/2 39/62/2 47/96/2

vt -18.1197 47.8421
vt -6.15917 47.8421
vt -6.15917 56.3142
vt -18.1197 56.3142
f 47/122/1 39/123/1 41/124/1 48/125/1 

f 46/56/14 48/96/14 41/62/14 40/5/14 43/71/14 45/55/14 

f 52/58/14 53/59/14 54/60/14 55/61/14 51/97/14 50/57/14 

v 3 1.16519 -0.95
vt 37.4016 -51.079
vn 0.707107 0.707107 6.72306e-016
vt 37.4016 -48.2951
vt 1.96851 -48.2951
v 3 1.16519 -0.0500002
vt 1.96851 -51.079
f 56/126/15 6/127/15 26/128/15 57/129/15 

vt -55.6777 -23.6209
vn 0.57735 0.57735 -0.57735
vt -57.0697 -26.0318
v 2.95 1.16519 -1
vt -54.2858 -26.0318
f 6/130/16 56/131/16 58/132/16

vt -57.0697 -2.01084e-012
vn 0.707107 0 -0.707107
vt -54.2858 -2.01084e-012
vt -54.2858 45.8736
vt -57.0697 45.8736
f 23/133/17 22/134/17 58/135/17 56/136/17 

vt -116.142 -1.9825e-012
vn 1.82151e-014 -7.19748e-016 -1
vt -80.7087 -1.93987e-012
vt -41.3386 -9.34449e-013
vt -1.9685 7.09691e-014
v 0.05 1.16519 -1
vt -1.9685 45.8736
vt -116.142 45.8736
f 22/137/18 21/138/18 20/139/18 19/140/18 59/141/18 58/142/18 

vt -26.4469 45.8736
vn -0.707107 2.51885e-015 -0.707107
vt -29.2308 45.8736
vt -29.2308 -2.39831e-014
vt -26.4469 -1.68777e-014
f 12/143/19 59/144/19 19/145/19 18/146/19 

vt -27.8389 24.5974
vn -0.57735 0.57735 -0.57735
vt -29.2308 22.1865
vt -26.4469 22.1865
f 8/147/20 59/148/20 12/149/20

vt -116.142 4.5987
vn 2.6395e-014 0.707107 -0.707107
vt -1.9685 4.5987
vt -1.9685 7.38258
vt -116.142 7.38258
f 58/150/21 59/151/21 8/152/21 6/153/21 

vt -37.4016 45.8736
vn -1 1.74253e-015 1.85491e-015
vt -37.4016 4.9738e-014
vt -1.96851 1.00897e-012
vt -1.96851 45.8736
f 12/154/22 18/155/22 14/156/22 11/157/22 

vt 1.96851 -2.01048e-012
vn 1 2.70666e-017 -1.02921e-017
vt 37.4016 -2.01403e-012
vt 37.4016 45.8736
vt 1.96851 45.8736
f 24/158/23 23/159/23 56/160/23 57/161/23 

vt 82.1245 -3.20581e-012
vn 0.707108 1.5113e-014 0.707106
vt 84.9084 -3.24844e-012
vt 84.9084 45.8736
vt 82.1245 45.8736
f 16/162/24 24/163/24 57/164/24 25/165/24 

vt 84.9084 -9.95917
vn 0.577351 0.577351 0.577349
vt 83.5164 -7.54825
vt 82.1245 -9.95917
f 57/166/25 26/167/25 25/168/25

