# Alias OBJ Model File
# Exported from SketchUp, (c) 2000-2012 Trimble Navigation Limited
# File units = meters

mtllib 2x3Z.mtl

g Mesh1 Model

usemtl FrontColor
v 1.95 1.16519 -2
vt 1.39196 45.8736
vn 0.707107 2.51885e-015 -0.707107
v 2 1.16519 -1.95
vt -1.39193 45.8736
v 2 2.6801e-014 -1.95
vt -1.39193 7.78175e-013
v 1.95 2.66205e-014 -2
vt 1.39196 7.7107e-013
f 1/1/1 2/2/1 3/3/1 4/4/1 

vt 1.39196 -26.0318
vn 0.57735 0.57735 -0.57735
v 1.95 1.21519 -1.95
vt 1.39612e-005 -23.6209
vt -1.39193 -26.0318
f 1/5/2 5/6/2 2/7/2

vt -76.7716 -23.2402
vn -1.91187e-014 0.707107 -0.707107
v 0.0499995 1.16519 -2
vt -1.96848 -23.2402
v 0.0499995 1.21519 -1.95
vt -1.96848 -20.4563
vt -76.7716 -20.4563
f 1/8/3 6/9/3 7/10/3 5/11/3 

vt -76.7716 1.04805e-012
vn -1.33261e-014 -1.22184e-028 -1
v 0.0499995 1.0259e-029 -2
vt -1.96848 1.00247e-026
vt -1.96848 45.8736
vt -76.7716 45.8736
f 4/12/4 8/13/4 6/14/4 1/15/4 

v 2 5.11655e-014 -1
vt -78.7402 39.3701
vn 1.1031e-014 -1 -1.12869e-014
v 2.95 1.08287e-015 -1
vt -116.142 39.3701
v 3 1.26334e-015 -0.95
vt -118.11 37.4016
v 3 2.56279e-014 -0.0500002
vt -118.11 1.96851
v 2.95 2.56279e-014 -1.6575e-007
vt -116.142 6.52559e-006
v 1.05 -2.43645e-014 2.48157e-014
vt -41.3386 -9.76996e-013
v 1 -2.54474e-014 -0.0500002
vt -39.3701 1.96851
v 1 -2.55376e-014 -1
vt -39.3701 39.3701
v 0.0499995 1.17311e-015 -1
vt -1.96848 39.3701
v -5.1e-007 9.02389e-017 -1.05
vt 2.00787e-005 41.3386
v -5.1e-007 1.0259e-029 -1.95
vt 2.00787e-005 76.7717
vt -1.96848 78.7402
vt -76.7716 78.7402
vt -78.7402 76.7717
f 9/16/5 10/17/5 11/18/5 12/19/5 13/20/5 14/21/5 15/22/5 16/23/5 17/24/5 18/25/5 19/26/5 8/27/5 4/28/5 3/29/5 

v 2 1.16519 -1
vt -78.7401 45.8736
vn 9.66472e-008 -1.37593e-021 -1
v 2.95 1.16519 -1
vt -116.142 45.8736
vt -116.142 4.26326e-014
vt -78.7401 2.01439e-012
f 20/30/6 21/31/6 10/32/6 9/33/6 

v 1.95 1.21519 -0.95
vt -76.7716 7.38255
vn 3.3155e-008 0.707107 -0.707106
v 2.95 1.21519 -0.95
vt -116.142 7.38254
vt -116.142 4.59866
vt -78.7401 4.59866
f 22/34/7 23/35/7 21/36/7 20/37/7 

vt 76.7716 37.4016
vn -3.54897e-015 1 1.36123e-014
v 2.35443 1.21519 -0.769426
vt 92.6941 30.2923
vt 116.142 37.4016
f 22/38/8 24/39/8 23/40/8

v 2.20253 1.21519 -0.506329
vt 86.7138 19.9342
f 24/39/8 22/38/8 25/41/8

v 1.81013 1.21519 -0.506329
vt 71.2648 19.9342
f 26/42/8 25/41/8 22/38/8

v 2.35443 1.21519 -0.243233
vt 92.6941 9.5761
f 26/42/8 27/43/8 25/41/8

v 1.65823 1.21519 -0.243233
vt 65.2846 9.5761
f 28/44/8 27/43/8 26/42/8

v 2.95 1.21519 -0.0500002
vt 116.142 1.96851
f 28/44/8 29/45/8 27/43/8

v 1.35443 1.21519 -0.243233
vt 53.324 9.5761
f 30/46/8 29/45/8 28/44/8

v 1.05 1.21519 -0.0500002
vt 41.3386 1.96851
f 30/46/8 31/47/8 29/45/8

v 1.20253 1.21519 -0.506329
vt 47.3438 19.9342
f 32/48/8 31/47/8 30/46/8

v 1.05 1.21519 -1.05
vt 41.3386 41.3386
f 31/47/8 32/48/8 33/49/8

v 1.20253 1.21519 -1.50633
vt 47.3438 59.3043
f 34/50/8 33/49/8 32/48/8

v 0.810126 1.21519 -1.50633
vt 31.8947 59.3043
f 34/50/8 35/51/8 33/49/8

v 1.35443 1.21519 -1.76943
vt 53.324 69.6624
f 36/52/8 35/51/8 34/50/8

v 0.658227 1.21519 -1.76943
vt 25.9145 69.6624
f 36/52/8 37/53/8 35/51/8

vt 76.7716 76.7717
f 5/54/8 37/53/8 36/52/8

v 0.35443 1.21519 -1.76943
vt 13.9539 69.6624
f 5/54/8 38/55/8 37/53/8

vt 1.96848 76.7717
f 7/56/8 38/55/8 5/54/8

v 0.202531 1.21519 -1.50633
vt 7.97367 59.3043
f 38/55/8 7/56/8 39/57/8

v 0.0499995 1.21519 -1.05
vt 1.96848 41.3386
f 40/58/8 39/57/8 7/56/8

v 0.35443 1.21519 -1.24323
vt 13.9539 48.9462
f 39/57/8 40/58/8 41/59/8

f 41/59/8 40/58/8 33/49/8

vt 41.3386 63.0603
vn 6.13367e-008 0.707107 0.707106
vt 1.96849 63.0603
v 0.0499995 1.16519 -1
vt 1.96849 60.2764
v 1 1.16519 -1
vt 39.3701 60.2764
f 33/60/9 40/61/9 42/62/9 43/63/9 

vt -27.8389 56.7429
vn -0.577351 0.577351 0.577349
v -5.1e-007 1.16519 -1.05
vt -29.2309 54.332
vt -26.447 54.332
f 40/64/10 44/65/10 42/66/10

vt -76.7717 35.2214
vn -0.707107 0.707107 6.72306e-016
v -5.1e-007 1.16519 -1.95
vt -76.7717 32.4375
vt -41.3386 32.4375
vt -41.3386 35.2214
f 7/67/11 45/68/11 44/69/11 40/70/11 

vt -54.2858 6.11375
vn -0.57735 0.57735 -0.57735
vt -55.6777 8.52466
vt -57.0696 6.11375
f 45/71/12 7/72/12 6/73/12

vt -57.0696 4.03897e-028
vn -0.707107 0 -0.707107
vt -54.2858 4.03897e-028
vt -54.2858 45.8736
vt -57.0696 45.8736
f 8/74/13 19/75/13 45/76/13 6/77/13 

vt -76.7717 -5.43462e-022
vn -1 2.70666e-017 -1.02921e-017
vt -41.3386 3.55271e-015
vt -41.3386 45.8736
vt -76.7717 45.8736
f 19/78/14 18/79/14 44/80/14 45/81/14 

vt -29.2309 4.45318e-013
vn -0.707108 1.5113e-014 0.707106
vt -26.447 4.87951e-013
vt -26.447 45.8736
vt -29.2309 45.8736
f 18/82/15 17/83/15 42/84/15 44/85/15 

vt 39.3701 45.8736
vn 1.78797e-007 7.125e-015 1
vt 1.96849 45.8736
vt 1.96849 3.26697e-013
vt 39.3701 -7.24906e-013
f 43/86/16 42/87/16 17/88/16 16/89/16 

vt -39.3701 -1.00542e-012
vn -1 8.67431e-030 1.16811e-015
vt -1.96851 -1.00187e-012
v 1 1.16519 -0.0500002
vt -1.96851 45.8736
vt -39.3701 45.8736
f 16/90/17 15/91/17 46/92/17 43/93/17 

vt 26.4468 -5.60098e-013
vt 29.2307 -5.17466e-013
v 1.05 1.16519 -9.02389e-017
vt 29.2307 45.8736
vt 26.4468 45.8736
f 15/94/15 14/95/15 47/96/15 46/97/15 

vt 41.3386 -9.59233e-013
vn 8.56273e-008 1.425e-014 1
vt 116.142 1.00897e-012
v 2.95 1.16519 -1.6575e-007
vt 116.142 45.8736
vt 41.3386 45.8736
f 14/98/18 13/99/18 48/100/18 47/101/18 

vt 82.1246 1.00897e-012
vn 0.707107 -4.24111e-033 0.707107
vt 84.9085 1.00897e-012
v 3 1.16519 -0.0500002
vt 84.9085 45.8736
vt 82.1246 45.8736
f 13/102/19 12/103/19 49/104/19 48/105/19 

vt 37.4016 -1.56072e-013
vn 1 1.74253e-015 1.85491e-015
v 3 1.16519 -0.95
vt 37.4016 45.8736
vt 1.96851 45.8736
vt 1.96851 8.0316e-013
f 11/106/20 50/107/20 49/108/20 12/109/20 

vt -57.0696 -2.27243e-013
vt -54.2858 -2.34348e-013
f 21/76/1 50/77/1 11/110/1 10/111/1 

vt -54.2858 -26.0318
vt -55.6777 -23.6209
vt -57.0696 -26.0318
f 21/112/2 23/113/2 50/114/2

vt 1.96851 -48.2951
vn 0.707107 0.707107 -1.08049e-016
vt 1.96851 -51.079
vt 37.4016 -51.079
vt 37.4016 -48.2951
f 29/115/21 49/116/21 50/117/21 23/118/21 

vt 82.1246 -9.959
vn 0.57735 0.57735 0.57735
vt 84.9085 -9.959
vt 83.5166 -7.54809
f 48/119/22 49/120/22 29/121/22

vt 41.3386 35.2214
vn 2.91388e-008 0.707107 0.707106
vt 41.3386 32.4375
vt 116.142 32.4375
vt 116.142 35.2214
f 31/122/23 47/123/23 48/124/23 29/125/23 

vt 27.8388 56.743
vt 26.4468 54.3321
vt 29.2307 54.3321
f 31/126/10 46/127/10 47/128/10

vt -39.3701 60.2764
vn -0.707107 0.707107 1.7146e-014
vt -1.96851 60.2764
vt -1.96851 63.0603
vt -41.3386 63.0603
f 43/129/24 46/130/24 31/131/24 33/132/24 

v 2.81013 1.21519 -0.506329
vt 110.635 19.9342
f 23/40/8 51/133/8 29/45/8

v 2.65823 1.21519 -0.769426
vt 104.655 30.2923
f 23/40/8 52/134/8 51/133/8

f 23/40/8 24/39/8 52/134/8

vt -104.655 47.8421
vn 0 0 -1
vt -92.6941 47.8421
v 2.35443 1.43038 -0.769426
vt -92.6941 56.3142
v 2.65823 1.43038 -0.769426
vt -104.655 56.3142
f 52/135/25 24/136/25 53/137/25 54/138/25 

vt -72.581 47.8421
vn -0.866025 0 -0.5
vt -60.6205 47.8421
v 2.20253 1.43038 -0.506329
vt -60.6205 56.3142
vt -72.581 56.3142
f 24/139/26 25/140/26 55/141/26 53/142/26 

vt 26.0934 47.8421
vn -0.866025 0 0.5
vt 38.0539 47.8421
v 2.35443 1.43038 -0.243233
vt 38.0539 56.3142
vt 26.0934 56.3142
f 25/143/27 27/144/27 56/145/27 55/146/27 

vt 92.6941 47.8421
vn 0 0 1
v 2.65823 1.21519 -0.243233
vt 104.655 47.8421
v 2.65823 1.43038 -0.243233
vt 104.655 56.3142
vt 92.6941 56.3142
f 27/147/28 57/148/28 58/149/28 56/150/28 

vt 104.655 9.5761
f 27/43/8 29/45/8 57/151/8

f 57/151/8 29/45/8 51/133/8

vt 60.6205 47.8421
vn 0.866025 0 0.5
vt 72.581 47.8421
v 2.81013 1.43038 -0.506329
vt 72.581 56.3142
vt 60.6205 56.3142
f 57/152/29 51/153/29 59/154/29 58/155/29 

vt -38.0539 47.8421
vn 0.866025 0 -0.5
vt -26.0934 47.8421
vt -26.0934 56.3142
vt -38.0539 56.3142
f 51/156/30 52/157/30 54/158/30 59/159/30 

vn 0 1 -0
f 55/41/31 56/43/31 58/151/31 59/133/31 54/134/31 53/39/31 

v 0.658227 1.21519 -1.24323
vt 25.9145 48.9462
f 41/59/8 33/49/8 60/160/8

f 60/160/8 33/49/8 35/51/8

vt 55.3459 47.8421
vt 67.3064 47.8421
v 0.810126 1.43038 -1.50633
vt 67.3064 56.3142
v 0.658227 1.43038 -1.24323
vt 55.3459 56.3142
f 60/161/29 35/162/29 61/163/29 62/164/29 

vt 35.4117 47.8421
vt 47.3722 47.8421
v 0.658227 1.43038 -1.76943
vt 47.3722 56.3142
vt 35.4117 56.3142
f 35/165/30 37/166/30 63/167/30 61/168/30 

vt -25.9145 47.8421
vt -13.9539 47.8421
v 0.35443 1.43038 -1.76943
vt -13.9539 56.3142
vt -25.9145 56.3142
f 37/169/25 38/170/25 64/171/25 63/172/25 

vt -67.3064 47.8421
vt -55.3459 47.8421
v 0.202531 1.43038 -1.50633
vt -55.3459 56.3142
vt -67.3064 56.3142
f 38/173/26 39/174/26 65/175/26 64/176/26 

vt -47.3722 47.8421
vt -35.4117 47.8421
v 0.35443 1.43038 -1.24323
vt -35.4117 56.3142
vt -47.3722 56.3142
f 39/177/27 41/178/27 66/179/27 65/180/27 

vt 13.9539 47.8421
vt 25.9145 47.8421
vt 25.9145 56.3142
vt 13.9539 56.3142
f 41/181/28 60/182/28 62/183/28 66/184/28 

f 65/57/31 66/59/31 62/160/31 61/51/31 63/53/31 64/55/31 

v 1.65823 1.21519 -1.76943
vt 65.2846 69.6624
f 5/54/8 36/52/8 67/185/8

vt -65.2846 47.8421
vt -53.324 47.8421
v 1.35443 1.43038 -1.76943
vt -53.324 56.3142
v 1.65823 1.43038 -1.76943
vt -65.2846 56.3142
f 67/186/25 36/187/25 68/188/25 69/189/25 

vt -86.9914 47.8421
vt -75.0309 47.8421
v 1.20253 1.43038 -1.50633
vt -75.0309 56.3142
vt -86.9914 56.3142
f 36/190/26 34/191/26 70/192/26 68/193/26 

vt -27.6872 47.8421
v 1.35443 1.21519 -1.24323
vt -15.7266 47.8421
v 1.35443 1.43038 -1.24323
vt -15.7266 56.3142
vt -27.6872 56.3142
f 34/194/27 71/195/27 72/196/27 70/197/27 

v 1.35443 1.21519 -0.769426
vt 53.324 30.2923
vt 53.324 48.9462
f 34/50/8 73/198/8 71/199/8

f 73/198/8 34/50/8 32/48/8

vt -52.896 47.8421
vt -40.9354 47.8421
v 1.20253 1.43038 -0.506329
vt -40.9354 56.3142
v 1.35443 1.43038 -0.769426
vt -52.896 56.3142
f 73/200/26 32/201/26 74/202/26 75/203/26 

vt 6.40834 47.8421
vt 18.3689 47.8421
v 1.35443 1.43038 -0.243233
vt 18.3689 56.3142
vt 6.40834 56.3142
f 32/204/27 30/205/27 76/206/27 74/207/27 

vt 53.324 47.8421
vt 65.2846 47.8421
v 1.65823 1.43038 -0.243233
vt 65.2846 56.3142
vt 53.324 56.3142
f 30/208/28 28/209/28 77/210/28 76/211/28 

vt 40.9354 47.8421
vt 52.896 47.8421
v 1.81013 1.43038 -0.506329
vt 52.896 56.3142
vt 40.9354 56.3142
f 28/212/29 26/213/29 78/214/29 77/215/29 

vt -18.3689 47.8421
v 1.65823 1.21519 -0.769426
vt -6.40834 47.8421
v 1.65823 1.43038 -0.769426
vt -6.40834 56.3142
vt -18.3689 56.3142
f 26/216/30 79/217/30 80/218/30 78/219/30 

v 1.65823 1.21519 -1.24323
vt 65.2846 48.9462
vt 65.2846 30.2923
f 81/220/8 79/221/8 26/42/8

f 81/220/8 73/198/8 79/221/8

f 71/199/8 73/198/8 81/220/8

v 1.65823 1.43038 -1.24323
f 71/208/28 81/209/28 82/210/28 72/211/28 

vt 75.0309 47.8421
v 1.81013 1.21519 -1.50633
vt 86.9914 47.8421
v 1.81013 1.43038 -1.50633
vt 86.9914 56.3142
vt 75.0309 56.3142
f 81/222/29 83/223/29 84/224/29 82/225/29 

vt 71.2648 59.3043
f 81/220/8 26/42/8 83/226/8

f 26/42/8 22/38/8 83/226/8

f 5/54/8 83/226/8 22/38/8

f 5/54/8 67/185/8 83/226/8

vt 15.7266 47.8421
vt 27.6872 47.8421
vt 27.6872 56.3142
vt 15.7266 56.3142
f 83/227/30 67/228/30 69/229/30 84/230/30 

f 70/50/31 72/199/31 82/220/31 84/226/31 69/185/31 68/52/31 

vt 39.3701 -23.2401
vn 0.707107 0.707107 1.88985e-014
vt 76.7717 -23.2401
vt 76.7717 -20.4563
vt 37.4016 -20.4563
f 20/231/32 2/232/32 5/233/32 22/234/32 

vt 39.3701 1.92088e-012
vn 1 1.1875e-015 1.8495e-015
vt 76.7717 9.61652e-013
vt 76.7717 45.8736
f 9/235/33 3/236/33 2/237/33 20/86/33 

f 79/186/25 73/187/25 75/188/25 80/189/25 

f 74/48/31 76/46/31 77/44/31 78/42/31 80/221/31 75/198/31 

